; Engine configuration file.
; It's best edited using the editor UI and not directly,
; since the parameters that go here are not all obvious.
;
; Format:
;   [section] ; section goes between []
;   param=value ; assign values to parameters

config_version=5

_global_script_classes=[{
"base": "Node",
"class": &"Damper",
"language": &"GDScript",
"path": "res://damper/Damper.gd"
}, {
"base": "Node2D",
"class": &"Damper2D",
"language": &"GDScript",
"path": "res://damper/Damper2D.gd"
}, {
"base": "Node3D",
"class": &"Damper3D",
"language": &"GDScript",
"path": "res://damper/Damper3D.gd"
}, {
"base": "Line2D",
"class": &"Grapher",
"language": &"GDScript",
"path": "res://damper/Grapher.gd"
}, {
"base": "Button",
"class": &"RebindButton",
"language": &"GDScript",
"path": "res://ui_elements/rebind_button/RebindButton.gd"
}, {
"base": "Control",
"class": &"TestGUI",
"language": &"GDScript",
"path": "res://test_gui/TestGUI.gd"
}]
_global_script_class_icons={
"Damper": "",
"Damper2D": "",
"Damper3D": "",
"Grapher": "",
"RebindButton": "",
"TestGUI": ""
}

[application]

config/name="CodeLibrary"
run/main_scene="res://3d_character_controller/TestLevel.tscn"
config/features=PackedStringArray("4.0", "Vulkan Clustered")
config/icon="res://icon.png"

[autoload]

Saver="*res://singletons/Saver.gd"
InputHelper="*res://singletons/InputHelper.gd"
TransitionManager="*res://singletons/TransitionManager.tscn"
AudioHelper="*res://singletons/AudioHelper.gd"

[display]

window/stretch/mode="canvas_items"
window/stretch/aspect="expand"

[editor]

movie_writer/movie_file="/home/julia/GodotProjects/4.0/FPS/movie.avi"

[input]

up={
"deadzone": 0.5,
"events": [Object(InputEventJoypadMotion,"resource_local_to_scene":false,"resource_name":"","device":-1,"axis":1,"axis_value":-1.0,"script":null)
, Object(InputEventKey,"resource_local_to_scene":false,"resource_name":"","device":0,"window_id":0,"store_command":true,"alt_pressed":false,"shift_pressed":false,"meta_pressed":false,"command_pressed":false,"pressed":false,"keycode":0,"physical_keycode":87,"unicode":0,"echo":false,"script":null)
]
}
down={
"deadzone": 0.5,
"events": [Object(InputEventJoypadMotion,"resource_local_to_scene":false,"resource_name":"","device":-1,"axis":1,"axis_value":1.0,"script":null)
, Object(InputEventKey,"resource_local_to_scene":false,"resource_name":"","device":0,"window_id":0,"store_command":true,"alt_pressed":false,"shift_pressed":false,"meta_pressed":false,"command_pressed":false,"pressed":false,"keycode":0,"physical_keycode":83,"unicode":0,"echo":false,"script":null)
]
}
left={
"deadzone": 0.5,
"events": [Object(InputEventJoypadMotion,"resource_local_to_scene":false,"resource_name":"","device":-1,"axis":0,"axis_value":-1.0,"script":null)
, Object(InputEventKey,"resource_local_to_scene":false,"resource_name":"","device":0,"window_id":0,"store_command":true,"alt_pressed":false,"shift_pressed":false,"meta_pressed":false,"command_pressed":false,"pressed":false,"keycode":0,"physical_keycode":65,"unicode":0,"echo":false,"script":null)
]
}
right={
"deadzone": 0.5,
"events": [Object(InputEventJoypadMotion,"resource_local_to_scene":false,"resource_name":"","device":-1,"axis":0,"axis_value":1.0,"script":null)
, Object(InputEventKey,"resource_local_to_scene":false,"resource_name":"","device":0,"window_id":0,"store_command":true,"alt_pressed":false,"shift_pressed":false,"meta_pressed":false,"command_pressed":false,"pressed":false,"keycode":0,"physical_keycode":68,"unicode":0,"echo":false,"script":null)
]
}
jump={
"deadzone": 0.5,
"events": [Object(InputEventKey,"resource_local_to_scene":false,"resource_name":"","device":0,"window_id":0,"store_command":true,"alt_pressed":false,"shift_pressed":false,"meta_pressed":false,"command_pressed":false,"pressed":false,"keycode":0,"physical_keycode":32,"unicode":0,"echo":false,"script":null)
]
}
pause={
"deadzone": 0.5,
"events": [Object(InputEventKey,"resource_local_to_scene":false,"resource_name":"","device":0,"window_id":0,"store_command":true,"alt_pressed":false,"shift_pressed":false,"meta_pressed":false,"command_pressed":false,"pressed":false,"keycode":0,"physical_keycode":16777217,"unicode":0,"echo":false,"script":null)
]
}
zoom_in={
"deadzone": 0.5,
"events": [Object(InputEventMouseButton,"resource_local_to_scene":false,"resource_name":"","device":-1,"window_id":0,"store_command":true,"alt_pressed":false,"shift_pressed":false,"meta_pressed":false,"command_pressed":false,"button_mask":8,"position":Vector2(345, 205),"global_position":Vector2(345, 205),"factor":1.0,"button_index":4,"pressed":true,"double_click":false,"script":null)
]
}
zoom_out={
"deadzone": 0.5,
"events": [Object(InputEventMouseButton,"resource_local_to_scene":false,"resource_name":"","device":-1,"window_id":0,"store_command":true,"alt_pressed":false,"shift_pressed":false,"meta_pressed":false,"command_pressed":false,"button_mask":0,"position":Vector2(0, 0),"global_position":Vector2(0, 0),"factor":1.0,"button_index":5,"pressed":false,"double_click":false,"script":null)
]
}

[physics]

3d/default_gravity=49.0
